{
    "KPlugin": {
        "Category": "Accessibility",
        "Description": "Display a mouse cursor locating effect when activated",
        "Description[ar]": "تعرض تأثير تحديد موقع مؤشر الفأرة عند التنشيط",
        "Description[az]": "Ekranda kursorun yerini göstərir",
        "Description[bg]": "Показва ефект на локализиране на показалеца на мишката, когато е активиран",
        "Description[ca@valencia]": "Mostra un efecte de posició del cursor del ratolí quan està activat",
        "Description[ca]": "Mostra un efecte de posició del cursor del ratolí quan està activat",
        "Description[cs]": "Zobrazuje při aktivaci efekt zvýrazňující pozici kurzoru myši",
        "Description[de]": "Hebt bei Bedarf die Position des Mauszeigers hervor",
        "Description[en_GB]": "Display a mouse cursor locating effect when activated",
        "Description[es]": "Muestra un efecto de localización del cursor del ratón cuando se activa",
        "Description[et]": "Aktiveerimisel näidatakse hiirekursori asukohta",
        "Description[eu]": "Bistaratu saguaren kurtsorea kokatzeko efektu bat aktibatuta dagoenean",
        "Description[fi]": "Näytä aktivoitaessa hiiriosoittimen jäljitystehoste",
        "Description[fr]": "Afficher un effet indiquant la position du pointeur de la souris quand activé",
        "Description[hu]": "Aktiváláskor megjelenít egy effektust az egérkurzor megtalálásához",
        "Description[ia]": "Monstra un effecto de location de mus quando activate",
        "Description[id]": "Menampilkan sebuah efek lokasi kursor mouse ketika diaktifkan",
        "Description[it]": "Visualizza un effetto di posizionamento del puntatore del mouse quando è attivato",
        "Description[ja]": "有効化されたときマウスカーソルの場所を示す効果を表示します",
        "Description[ko]": "활성화되었을 때 마우스 커서의 위치를 표시합니다",
        "Description[nl]": "Toont de positie van de muisaanwijzer wanneer geactiveerd",
        "Description[nn]": "Vis kor musepeikaren er",
        "Description[pl]": "Wyświetla efekt wskazujący położenie wskaźnika myszy",
        "Description[pt]": "Mostrar um efeito de localização do cursor do rato quando activado",
        "Description[pt_BR]": "Mostra um efeito de localização do ponteiro do mouse quando ativada",
        "Description[ro]": "Afișează un efect de găsire a cursorului când e activat",
        "Description[ru]": "Положение курсора мыши на экране",
        "Description[sk]": "Zobrazí pri aktivácii efekt zvýrazňujúci pozíciu kurzoru myši",
        "Description[sl]": "Prikažite prostorski učinek kazalca miške, ko je aktiviran",
        "Description[sv]": "Visa en lokaliseringseffekt för muspekaren om aktiverad",
        "Description[ta]": "தூண்டப்படும்போது சுட்டிக்குறியை கண்டுபிடிக்க உதவும்",
        "Description[tr]": "Etkinleştirildiğinde bir fare imleci bulma efekti görüntüle",
        "Description[uk]": "Показ наближення вказівника миші",
        "Description[vi]": "Khi được kích hoạt, hiển thị một hiệu ứng định vị con trỏ chuột",
        "Description[x-test]": "xxDisplay a mouse cursor locating effect when activatedxx",
        "Description[zh_CN]": "激活时突出显示鼠标所在位置",
        "Description[zh_TW]": "觸發時強調顯示滑鼠游標讓它比較容易被找到",
        "EnabledByDefault": false,
        "Id": "trackmouse",
        "License": "GPL",
        "Name": "Track Mouse",
        "Name[ar]": "تتبع الفارة",
        "Name[az]": "Kursorun izi",
        "Name[bg]": "Проследяване на показалеца",
        "Name[ca@valencia]": "Seguiment del ratolí",
        "Name[ca]": "Seguiment del ratolí",
        "Name[cs]": "Sledování myši",
        "Name[de]": "Maus-Position finden",
        "Name[en_GB]": "Track Mouse",
        "Name[es]": "Seguimiento del ratón",
        "Name[et]": "Hiire jälgimine",
        "Name[eu]": "Saguaren jarraipena",
        "Name[fi]": "Hiiren jäljitys",
        "Name[fr]": "Suivi de la souris",
        "Name[hu]": "Egérkövetés",
        "Name[ia]": "Tracia mus",
        "Name[id]": "Lacak mouse",
        "Name[it]": "Trova il mouse",
        "Name[ja]": "マウスを追跡",
        "Name[ko]": "마우스 추적",
        "Name[nl]": "Muis volgen",
        "Name[nn]": "Følg musepeikaren",
        "Name[pl]": "Śledzenie myszy",
        "Name[pt]": "Seguir o Rato",
        "Name[pt_BR]": "Seguir o mouse",
        "Name[ro]": "Urmărește mausul",
        "Name[ru]": "Поиск курсора мыши на экране",
        "Name[sk]": "Sledovať myš",
        "Name[sl]": "Sledi miški",
        "Name[sv]": "Följ musen",
        "Name[ta]": "சுட்டியை கண்டுபிடி",
        "Name[tr]": "Fareyi İzle",
        "Name[uk]": "Сліди мишки",
        "Name[vi]": "Theo dõi chuột",
        "Name[x-test]": "xxTrack Mousexx",
        "Name[zh_CN]": "鼠标定位",
        "Name[zh_TW]": "滑鼠追蹤"
    },
    "X-KDE-ConfigModule": "kwin_trackmouse_config",
    "org.kde.kwin.effect": {
        "video": "https://files.kde.org/plasma/kwin/effect-videos/track_mouse.mp4"
    }
}
